{
  "cookies": [],
  "origins": [
    {
      "origin": "https://thewildernet.com",
      "localStorage": [
        {
          "name": "reduxVersion",
          "value": "2.2.0"
        },
        {
          "name": "persist:root",
          "value": "{\"user\":\"{\\\"userId\\\":37,\\\"authToken\\\":\\\"\\\",\\\"email\\\":\\\"honor.roll.tutor@gmail.com\\\",\\\"username\\\":\\\"honor.roll.tutor@gmail.com\\\",\\\"profilePicture\\\":\\\"https://suunnmenkcwoyfielqtz.supabase.co/storage/v1/object/public/avatars/profile-avatar-honor.roll.tutor@gmail.com.jpg?\\\",\\\"bio\\\":\\\"Hi\\\",\\\"interests\\\":[],\\\"bookmarkedBlogs\\\":[],\\\"isUserFound\\\":false,\\\"isLoggedIn\\\":false,\\\"isUserLoading\\\":false,\\\"loginErrorMessage\\\":\\\"\\\"}\",\"tag\":\"{\\\"availableTags\\\":[]}\",\"blogList\":\"{\\\"shuffled\\\":{\\\"paginator\\\":{\\\"count\\\":226,\\\"nextPageUrl\\\":\\\"http://thewildernet.com/api/blogs/shuffled/?page=2\\\",\\\"prevPageUrl\\\":null,\\\"pageSize\\\":12,\\\"seed\\\":8473199393922106000},\\\"isLoading\\\":false,\\\"errorMessage\\\":\\\"\\\",\\\"blogs\\\":[{\\\"id\\\":206,\\\"tags\\\":[\\\"Historical Sewing\\\",\\\"Historical costuming\\\",\\\"Corsetry\\\",\\\"Fairytales\\\"],\\\"url\\\":\\\"https://thatpurpledress.blogspot.com/\\\",\\\"title\\\":\\\"That Purple Dress\\\",\\\"description\\\":\\\"Historical sewing and general costuming, especially Victorian era.\\\",\\\"slug\\\":\\\"that-purple-dress\\\",\\\"image_blog_page\\\":\\\"https://suunnmenkcwoyfielqtz.supabase.co/storage/v1/object/public/image_blog_page/unique-blog-image-https://thatpurpledress.blogspot.com/.jpg?\\\",\\\"created_on\\\":\\\"2024-11-08T23:32:13.514193Z\\\",\\\"created_by\\\":16},{\\\"id\\\":52,\\\"tags\\\":[],\\\"url\\\":\\\"http://www.thefashionhistorian.com/\\\",\\\"title\\\":\\\"The Fashion Historian\\\",\\\"description\\\":\\\"fashion historian\\\",\\\"slug\\\":\\\"the-fashion-historian\\\",\\\"image_blog_page\\\":\\\"https://suunnmenkcwoyfielqtz.supabase.co/storage/v1/object/public/image_blog_page/unique-blog-image-http://www.thefashionhistorian.com/.jpg?\\\",\\\"created_on\\\":\\\"2024-09-30T21:00:59.047981Z\\\",\\\"created_by\\\":7},{\\\"id\\\":102,\\\"tags\\\":[\\\"Culture\\\",\\\"Fashion\\\",\\\"sewing\\\",\\\"Film\\\",\\\"Costume\\\"],\\\"url\\\":\\\"https://edelweisspatterns.com/blog/\\\",\\\"title\\\":\\\"Edelweiss Patterns\\\",\\\"description\\\":\\\"Sewing patterns inspired by classic cinema. Written by Katrina Holte.\\\",\\\"slug\\\":\\\"edelweiss-patterns\\\",\\\"image_blog_page\\\":\\\"https://suunnmenkcwoyfielqtz.supabase.co/storage/v1/object/public/image_blog_page/unique-blog-image-https://edelweisspatterns.com/blog/.jpg?\\\",\\\"created_on\\\":\\\"2024-10-18T19:19:34.197031Z\\\",\\\"created_by\\\":7},{\\\"id\\\":227,\\\"tags\\\":[\\\"Technology\\\"],\\\"url\\\":\\\"https://www.nettosgameroom.com/\\\",\\\"title\\\":\\\"Netto's Game Room\\\",\\\"description\\\":\\\"Netto's Game Room is a video game blog dedicated to sharing daily video game news updates, interviews with developers, video game reviews, and other original content. Gaming is our forte!\\\",\\\"slug\\\":\\\"nettos-game-room\\\",\\\"image_blog_page\\\":\\\"https://suunnmenkcwoyfielqtz.supabase.co/storage/v1/object/public/image_blog_page/blog-image-https://www.nettosgameroom.com/20241125183854542519.jpg?\\\",\\\"created_on\\\":\\\"2024-11-25T18:38:57.430258Z\\\",\\\"created_by\\\":18},{\\\"id\\\":204,\\\"tags\\\":[\\\"Culture\\\",\\\"History\\\",\\\"Literature\\\",\\\"Salem\\\",\\\"Academia\\\"],\\\"url\\\":\\\"https://streetsofsalem.com/\\\",\\\"title\\\":\\\"Streets of Salem\\\",\\\"description\\\":\\\"Posts about culture, history, literature.\\\",\\\"slug\\\":\\\"streets-of-salem\\\",\\\"image_blog_page\\\":\\\"https://suunnmenkcwoyfielqtz.supabase.co/storage/v1/object/public/image_blog_page/unique-blog-image-https://streetsofsalem.com/.jpg?\\\",\\\"created_on\\\":\\\"2024-11-08T23:27:58.323718Z\\\",\\\"created_by\\\":16},{\\\"id\\\":231,\\\"tags\\\":[\\\"Self Help\\\",\\\"Food\\\",\\\"Technology\\\",\\\"Travel\\\",\\\"Lifestyle\\\",\\\"health\\\"],\\\"url\\\":\\\"https://seriousaging.com\\\",\\\"title\\\":\\\"Serious Aging\\\",\\\"description\\\":\\\"Serious Aging breaks down the science behind living longer and healthier, offering clear, practical steps to enhance your life at every stage.\\\",\\\"slug\\\":\\\"serious-aging\\\",\\\"image_blog_page\\\":\\\"https://suunnmenkcwoyfielqtz.supabase.co/storage/v1/object/public/image_blog_page/blog-image-https://seriousaging.com20241126041745191297.jpg?\\\",\\\"created_on\\\":\\\"2024-11-26T04:17:48.023012Z\\\",\\\"created_by\\\":72},{\\\"id\\\":54,\\\"tags\\\":[],\\\"url\\\":\\\"http://demodecouture.com/\\\",\\\"title\\\":\\\"Demode\\\",\\\"description\\\":\\\"historical costuming projects\\\",\\\"slug\\\":\\\"demode\\\",\\\"image_blog_page\\\":\\\"https://suunnmenkcwoyfielqtz.supabase.co/storage/v1/object/public/image_blog_page/unique-blog-image-http://demodecouture.com/.jpg?\\\",\\\"created_on\\\":\\\"2024-10-01T01:52:11.321371Z\\\",\\\"created_by\\\":7},{\\\"id\\\":13,\\\"tags\\\":[],\\\"url\\\":\\\"https://stratechery.com/about/\\\",\\\"title\\\":\\\"Stratechery\\\",\\\"description\\\":\\\"Analysis of strategy and business side of technology\\\",\\\"slug\\\":\\\"stratechery\\\",\\\"image_blog_page\\\":\\\"https://suunnmenkcwoyfielqtz.supabase.co/storage/v1/object/public/image_blog_page/unique-blog-image-https://stratechery.com/about/.jpg?\\\",\\\"created_on\\\":\\\"2024-09-23T18:02:32.887302Z\\\",\\\"created_by\\\":7},{\\\"id\\\":48,\\\"tags\\\":[\\\"Technology\\\"],\\\"url\\\":\\\"https://codewithmukesh.com/\\\",\\\"title\\\":\\\"Code with Mukesh\\\",\\\"description\\\":\\\"Software engineer specializing in .NET, AWS and Terraform.\\\",\\\"slug\\\":\\\"code-with-mukesh\\\",\\\"image_blog_page\\\":\\\"https://suunnmenkcwoyfielqtz.supabase.co/storage/v1/object/public/image_blog_page/unique-blog-image-https://codewithmukesh.com/.jpg?\\\",\\\"created_on\\\":\\\"2024-09-30T15:41:57.809983Z\\\",\\\"created_by\\\":7},{\\\"id\\\":86,\\\"tags\\\":[],\\\"url\\\":\\\"https://www.annmariemichaels.com/\\\",\\\"title\\\":\\\"Anne-Marie Michaels\\\",\\\"description\\\":\\\"Nutrition, health, lifestyle blog, health chronic disease\\\",\\\"slug\\\":\\\"anne-marie-michaels\\\",\\\"image_blog_page\\\":\\\"https://suunnmenkcwoyfielqtz.supabase.co/storage/v1/object/public/image_blog_page/unique-blog-image-https://www.annmariemichaels.com/.jpg?\\\",\\\"created_on\\\":\\\"2024-10-13T01:16:30.425886Z\\\",\\\"created_by\\\":7},{\\\"id\\\":97,\\\"tags\\\":[\\\"Self Help\\\",\\\"nutrition\\\",\\\"recipes\\\",\\\"metabolism\\\",\\\"inflammation\\\",\\\"stress\\\",\\\"eating disorders\\\"],\\\"url\\\":\\\"https://180degreehealth.com/\\\",\\\"title\\\":\\\"180 Degree Health\\\",\\\"description\\\":\\\"Body composition, nutrition, inflammation, metabolism, eating disorders, exercise, stress, recipes\\\",\\\"slug\\\":\\\"180-degree-health\\\",\\\"image_blog_page\\\":\\\"https://suunnmenkcwoyfielqtz.supabase.co/storage/v1/object/public/image_blog_page/unique-blog-image-https://180degreehealth.com/.jpg?\\\",\\\"created_on\\\":\\\"2024-10-17T23:12:35.185731Z\\\",\\\"created_by\\\":7},{\\\"id\\\":44,\\\"tags\\\":[\\\"Technology\\\"],\\\"url\\\":\\\"https://neilonsoftware.com/blog/\\\",\\\"title\\\":\\\"Neil on Software\\\",\\\"description\\\":\\\"Articles on software development, professional development, management, with podcasts.\\\",\\\"slug\\\":\\\"neil-on-software\\\",\\\"image_blog_page\\\":\\\"https://suunnmenkcwoyfielqtz.supabase.co/storage/v1/object/public/image_blog_page/unique-blog-image-https://neilonsoftware.com/blog/.jpg?\\\",\\\"created_on\\\":\\\"2024-09-30T15:14:55.112644Z\\\",\\\"created_by\\\":7}]},\\\"recent\\\":{\\\"paginator\\\":{\\\"count\\\":226,\\\"nextPageUrl\\\":\\\"http://thewildernet.com/api/blogs/recent/?page=2\\\",\\\"prevPageUrl\\\":null,\\\"pageSize\\\":12},\\\"isLoading\\\":false,\\\"errorMessage\\\":\\\"\\\",\\\"blogs\\\":[{\\\"id\\\":277,\\\"tags\\\":[\\\"Politics\\\",\\\"History\\\",\\\"Literature\\\",\\\"Books\\\"],\\\"url\\\":\\\"https://legalish3.wordpress.com/2024/12/02/a-timeless-classic-harper-lees-to-kill-a-mockingbird/\\\",\\\"title\\\":\\\"A Timeless Classic: Harper Lee’s To Kill a Mockingbird\\\",\\\"description\\\":\\\"A curious six-year-old, a seasoned lawyer and a racially charged court case come together in a story transcending the boundaries of place and time. Join me as I unpack a timeless classic that blends heart, humor and hard truth to tell the world that ultimately, we are all the same-just different shades of grey. And these shades have nothing to do with the shades of our skin.\\\",\\\"slug\\\":\\\"a-timeless-classic-harper-lees-to-kill-a-mockingbird\\\",\\\"image_blog_page\\\":\\\"https://suunnmenkcwoyfielqtz.supabase.co/storage/v1/object/public/image_blog_page/blog-image-https://legalish3.wordpress.com/2024/12/02/a-timeless-classic-harper-lees-to-kill-a-mockingbird/20241203094417207865.jpg?\\\",\\\"created_on\\\":\\\"2024-12-03T09:44:19.883034Z\\\",\\\"created_by\\\":127},{\\\"id\\\":276,\\\"tags\\\":[\\\"Lifestyle\\\",\\\"community\\\",\\\"relationships\\\",\\\"love\\\"],\\\"url\\\":\\\"https://unknownsender.notion.site\\\",\\\"title\\\":\\\"Letters To No One\\\",\\\"description\\\":\\\"The title comes from the idea that I’m writing these with someone in mind but they will never get what I’m sending, albeit due to them never finding this or I’ll never tell them. Journaling can be a difficult thing for many reasons. I think that I have to be consistent with it but that’s not true. While also believing nothing happens in my life or that no one will care about what I want to say. Yet somehow, I find myself yearning for this exact thing. Meaning there’s at least one other person who wants to hear about other people’s experience to know someone else has the same… problems…? Writing these entries feels like an adult version of the diary books I read as a child, and maybe there will be a happy ending but I have no clue because this is my life and it’s currently happening to me. Who knows what’s about to happen next, but I’ll tell you when I get the time. *Very melodramatic, I know.*\\\",\\\"slug\\\":\\\"letters-to-no-one\\\",\\\"image_blog_page\\\":\\\"https://suunnmenkcwoyfielqtz.supabase.co/storage/v1/object/public/image_blog_page/blog-image-https://unknownsender.notion.site20241202225354686802.jpg?\\\",\\\"created_on\\\":\\\"2024-12-02T22:53:57.601843Z\\\",\\\"created_by\\\":123},{\\\"id\\\":275,\\\"tags\\\":[\\\"Arts\\\",\\\"Self Help\\\",\\\"Lifestyle\\\",\\\"Literature\\\"],\\\"url\\\":\\\"https://junesvetlovsky.com/\\\",\\\"title\\\":\\\"The Philosophical Accountant\\\",\\\"description\\\":\\\"I went back to school at one of the top business schools in the world to get my Executive MBA… only to realize I want to be a full-time writer. Unpacking that career pivot one blog post at a time!\\\",\\\"slug\\\":\\\"the-philosophical-accountant\\\",\\\"image_blog_page\\\":\\\"https://suunnmenkcwoyfielqtz.supabase.co/storage/v1/object/public/image_blog_page/blog-image-https://junesvetlovsky.com/20241202211958374130.jpg?\\\",\\\"created_on\\\":\\\"2024-12-02T21:20:00.558508Z\\\",\\\"created_by\\\":124},{\\\"id\\\":274,\\\"tags\\\":[\\\"Self Help\\\",\\\"Lifestyle\\\",\\\"Business\\\",\\\"stress\\\",\\\"automation\\\",\\\"horses\\\",\\\"Books\\\",\\\"sustainable \\\",\\\"friendship\\\"],\\\"url\\\":\\\"https://www.solist.blog/\\\",\\\"title\\\":\\\"So List. Blog About Lists and Checklists\\\",\\\"description\\\":\\\"Investigating lists, checklists and to-do lists for the better life, work and business.\\\",\\\"slug\\\":\\\"so-list-blog-about-lists-and-checklists\\\",\\\"image_blog_page\\\":\\\"https://suunnmenkcwoyfielqtz.supabase.co/storage/v1/object/public/image_blog_page/blog-image-https://www.solist.blog/20241202190016983039.jpg?\\\",\\\"created_on\\\":\\\"2024-12-02T19:00:20.184460Z\\\",\\\"created_by\\\":122},{\\\"id\\\":272,\\\"tags\\\":[],\\\"url\\\":\\\"https://theplainandsimpleguy.com/2024/12/01/the-santablog-series-day-1-the-countdown-to-christmas-has-begun-love-before-gifts/\\\",\\\"title\\\":\\\"THE SANTABLOG SERIES, DAY 1. (The countdown to christmas has begun, love before gifts)\\\",\\\"description\\\":\\\"1st day of a series leading up to Christmas, helping people smile and get into the christmas spirit while also trying to help people appreciate each other and life\\\",\\\"slug\\\":\\\"the-santablog-series-day-1-the-countdown-to-christmas-has-begun-love-before-gifts\\\",\\\"image_blog_page\\\":\\\"https://suunnmenkcwoyfielqtz.supabase.co/storage/v1/object/public/image_blog_page/blog-image-https://theplainandsimpleguy.com/2024/12/01/the-santablog-series-day-1-the-countdown-to-christmas-has-begun-love-before-gifts/20241202103523025747.jpg?\\\",\\\"created_on\\\":\\\"2024-12-02T10:35:25.777283Z\\\",\\\"created_by\\\":114},{\\\"id\\\":271,\\\"tags\\\":[\\\"Self Help\\\",\\\"Lifestyle\\\",\\\"personal musing\\\",\\\"Philosophy\\\",\\\"love\\\",\\\"friendship\\\"],\\\"url\\\":\\\"https://ripe-reflections-bullet.pages.dev/\\\",\\\"title\\\":\\\"Ripe Reflections\\\",\\\"description\\\":\\\"Ripe Reflections is an anonymous blog, or rather a one-person show, that aims to share unfiltered thoughts and reflections on life, love, and friendship. It is an unusual blog formatted as a scroll and published on notion, because all other blogging platforms are bloated with unrelated ads and other useless crap. This isn’t a structured space – the blog is not confined to a set list of topics nor does it have a definite approach – so you shouldn’t expect a fixed style or delivery. What you should expect, however, is something that will be worth reading and pondering over – an ever-evolving cluster of ideas.\\\",\\\"slug\\\":\\\"ripe-reflections\\\",\\\"image_blog_page\\\":\\\"https://suunnmenkcwoyfielqtz.supabase.co/storage/v1/object/public/image_blog_page/blog-image-https://ripe-reflections-bullet.pages.dev/20241202024704571321.jpg?\\\",\\\"created_on\\\":\\\"2024-12-02T02:47:07.482649Z\\\",\\\"created_by\\\":118},{\\\"id\\\":270,\\\"tags\\\":[\\\"Dogs\\\"],\\\"url\\\":\\\"https://www.allthingschihuahua.com/\\\",\\\"title\\\":\\\"All Things Chihuahua\\\",\\\"description\\\":\\\"All Things Chihuahua is a blog specifically geared toward chihuahua care. This includes grooming, training and care advice from experts. Chihuahuas are smaller than other breeds, and that means they often need specific adaptations to training and grooming a larger dog might not need. \\\\n\\\\nThis blog is aimed at helping chihuahua owners with the unique needs of this breed.\\\",\\\"slug\\\":\\\"all-things-chihuahua\\\",\\\"image_blog_page\\\":\\\"https://suunnmenkcwoyfielqtz.supabase.co/storage/v1/object/public/image_blog_page/blog-image-https://www.allthingschihuahua.com/20241202023459989849.jpg?\\\",\\\"created_on\\\":\\\"2024-12-02T02:35:03.300365Z\\\",\\\"created_by\\\":117},{\\\"id\\\":269,\\\"tags\\\":[\\\"Self Help\\\",\\\"Culture\\\",\\\"Politics\\\",\\\"Technology\\\",\\\"History\\\",\\\"Men\\\",\\\"personal musing\\\",\\\"Film\\\",\\\"History research\\\",\\\"pop culture\\\",\\\"movies\\\",\\\"TV\\\",\\\"Philosophy\\\"],\\\"url\\\":\\\"https://medium.com/@ProfessorTom\\\",\\\"title\\\":\\\"ProfessorTom's Medium\\\",\\\"description\\\":\\\"Computer guy. Amateur Historian. Blogger. Podcaster\\\",\\\"slug\\\":\\\"professortoms-medium\\\",\\\"image_blog_page\\\":\\\"https://suunnmenkcwoyfielqtz.supabase.co/storage/v1/object/public/image_blog_page/blog-image-https://medium.com/@ProfessorTom20241201170739853726.jpg?\\\",\\\"created_on\\\":\\\"2024-12-01T17:07:47.702986Z\\\",\\\"created_by\\\":111},{\\\"id\\\":268,\\\"tags\\\":[\\\"family geneology\\\",\\\"women\\\",\\\"motherhood\\\",\\\"relationships\\\"],\\\"url\\\":\\\"https://happypeacefulparenthood.blogspot.com/\\\",\\\"title\\\":\\\"HappyPeacefulParenting\\\",\\\"description\\\":\\\"Being a parent is an amazing journey full of love, joy, and development. Learn how to manage the inescapable problems that life will throw at you while maintaining a peaceful and happy family life. Discover advice and guidance on maintaining healthy parent-child connections, taking care of your personal needs, and appreciating the priceless moments of motherhood. Join us on this blog as we share our experiences, knowledge, and tactics for raising children who are truly happy and calm.\\\",\\\"slug\\\":\\\"happypeacefulparenting\\\",\\\"image_blog_page\\\":\\\"https://suunnmenkcwoyfielqtz.supabase.co/storage/v1/object/public/image_blog_page/blog-image-https://happypeacefulparenthood.blogspot.com/20241201154626416555.jpg?\\\",\\\"created_on\\\":\\\"2024-12-01T15:46:29.361028Z\\\",\\\"created_by\\\":109},{\\\"id\\\":267,\\\"tags\\\":[],\\\"url\\\":\\\"https://bondsoflust.blogspot.com/?m=1\\\",\\\"title\\\":\\\"Bonds of lust\\\",\\\"description\\\":\\\"A sex advice blog\\\",\\\"slug\\\":\\\"bonds-of-lust\\\",\\\"image_blog_page\\\":\\\"https://suunnmenkcwoyfielqtz.supabase.co/storage/v1/object/public/image_blog_page/blog-image-https://bondsoflust.blogspot.com/?m=120241201144327379816.jpg?\\\",\\\"created_on\\\":\\\"2024-12-01T14:43:29.818065Z\\\",\\\"created_by\\\":108},{\\\"id\\\":266,\\\"tags\\\":[],\\\"url\\\":\\\"https://www.billsbanter.com/blog/reviewing-my-buffalo-bills-preseason-predictions\\\",\\\"title\\\":\\\"Reviewing My Buffalo Bills Preseason Predictions\\\",\\\"description\\\":\\\"The bye week has come and gone which makes it the perfect time to revisit some preseason predictions. I had some big misses, players I wanted to see take a leap in their play that in reality, were long shots.  I enjoyed looking back and seeing how things are trending statistically and how the AFC East is currently unfolding. Lets start with the where I was wrong.\\\",\\\"slug\\\":\\\"reviewing-my-buffalo-bills-preseason-predictions\\\",\\\"image_blog_page\\\":\\\"https://suunnmenkcwoyfielqtz.supabase.co/storage/v1/object/public/image_blog_page/blog-image-https://www.billsbanter.com/blog/reviewing-my-buffalo-bills-preseason-predictions20241201135646226799.jpg?\\\",\\\"created_on\\\":\\\"2024-12-01T13:56:48.976423Z\\\",\\\"created_by\\\":107},{\\\"id\\\":265,\\\"tags\\\":[\\\"Lifestyle\\\",\\\"personal musing\\\",\\\"women\\\"],\\\"url\\\":\\\"https://mumsmidlifecrisis.com\\\",\\\"title\\\":\\\"Mum's Midlife Crisis\\\",\\\"description\\\":\\\"Navigating life, family, and being a solopreneur in your 40s and beyond.\\\",\\\"slug\\\":\\\"mums-midlife-crisis\\\",\\\"image_blog_page\\\":\\\"https://suunnmenkcwoyfielqtz.supabase.co/storage/v1/object/public/image_blog_page/blog-image-https://mumsmidlifecrisis.com20241201135004163032.jpg?\\\",\\\"created_on\\\":\\\"2024-12-01T13:50:07.017614Z\\\",\\\"created_by\\\":106}]},\\\"profileTag\\\":{\\\"paginator\\\":{\\\"count\\\":0,\\\"nextPageUrl\\\":null,\\\"prevPageUrl\\\":null,\\\"pageSize\\\":0},\\\"isLoading\\\":false,\\\"errorMessage\\\":\\\"\\\",\\\"blogs\\\":[]}}\",\"blogPage\":\"{\\\"uploadBlogDetails\\\":{\\\"url\\\":\\\"\\\",\\\"title\\\":\\\"\\\",\\\"description\\\":\\\"\\\",\\\"tags\\\":[],\\\"image_blog_page\\\":\\\"\\\",\\\"isLoading\\\":false},\\\"blogDetails\\\":{},\\\"blogDiscussionsList\\\":{},\\\"blogReviewsList\\\":{},\\\"isBlogPageLoading\\\":false,\\\"blogPageErrorMessage\\\":\\\"\\\",\\\"isBlogUploading\\\":false}\",\"nav\":\"{\\\"whichUserFlow\\\":\\\"auth-flow\\\",\\\"isSideDrawerOpen\\\":false}\",\"searchResults\":\"{\\\"paginator\\\":{\\\"count\\\":0,\\\"nextPageUrl\\\":null,\\\"prevPageUrl\\\":null,\\\"pageSize\\\":0},\\\"blogs\\\":[],\\\"isSearchLoading\\\":false,\\\"searchErrorMessage\\\":\\\"\\\",\\\"searchQuery\\\":\\\"\\\"}\",\"_persist\":\"{\\\"version\\\":-1,\\\"rehydrated\\\":true}\"}"
        }
      ]
    }
  ]
}